%YAML 1.1
%TAG !u! tag:unity3d.com,2011:
--- !u!1 &187174
GameObject:
  m_ObjectHideFlags: 0
  m_PrefabParentObject: {fileID: 0}
  m_PrefabInternal: {fileID: 100100000}
  serializedVersion: 5
  m_Component:
  - component: {fileID: 463384}
  - component: {fileID: 19890694}
  - component: {fileID: 19986810}
  - component: {fileID: 11411616}
  m_Layer: 14
  m_Name: PFX_BloodPuddle
  m_TagString: Untagged
  m_Icon: {fileID: 0}
  m_NavMeshLayer: 0
  m_StaticEditorFlags: 0
  m_IsActive: 1
--- !u!4 &463384
Transform:
  m_ObjectHideFlags: 1
  m_PrefabParentObject: {fileID: 0}
  m_PrefabInternal: {fileID: 100100000}
  m_GameObject: {fileID: 187174}
  m_LocalRotation: {x: 0, y: 0, z: 0, w: 1}
  m_LocalPosition: {x: -66.5, y: 1.43, z: 89.4}
  m_LocalScale: {x: 1, y: 1, z: 1}
  m_Children: []
  m_Father: {fileID: 0}
  m_RootOrder: 0
  m_LocalEulerAnglesHint: {x: 0, y: 0, z: 0}
--- !u!114 &11411616
MonoBehaviour:
  m_ObjectHideFlags: 1
  m_PrefabParentObject: {fileID: 0}
  m_PrefabInternal: {fileID: 100100000}
  m_GameObject: {fileID: 187174}
  m_Enabled: 1
  m_EditorHideFlags: 0
  m_Script: {fileID: 11500000, guid: c04d08dab14bf784bb63451b489ffe84, type: 3}
  m_Name: 
  m_EditorClassIdentifier: 
--- !u!198 &19890694
ParticleSystem:
  m_ObjectHideFlags: 1
  m_PrefabParentObject: {fileID: 0}
  m_PrefabInternal: {fileID: 100100000}
  m_GameObject: {fileID: 187174}
  serializedVersion: 5
  lengthInSec: 8.1
  simulationSpeed: 1
  stopAction: 0
  looping: 0
  prewarm: 0
  playOnAwake: 0
  useUnscaledTime: 0
  autoRandomSeed: 1
  useRigidbodyForVelocity: 1
  startDelay:
    serializedVersion: 2
    minMaxState: 0
    scalar: 0
    minScalar: 0
    maxCurve:
      serializedVersion: 2
      m_Curve:
      - serializedVersion: 2
        time: 0
        value: 1
        inSlope: 0
        outSlope: 0
        tangentMode: 0
      - serializedVersion: 2
        time: 1
        value: 1
        inSlope: 0
        outSlope: 0
        tangentMode: 0
      m_PreInfinity: 2
      m_PostInfinity: 2
      m_RotationOrder: 4
    minCurve:
      serializedVersion: 2
      m_Curve:
      - serializedVersion: 2
        time: 0
        value: 0
        inSlope: 0
        outSlope: 0
        tangentMode: 0
      - serializedVersion: 2
        time: 1
        value: 0
        inSlope: 0
        outSlope: 0
        tangentMode: 0
      m_PreInfinity: 2
      m_PostInfinity: 2
      m_RotationOrder: 4
  moveWithTransform: 0
  moveWithCustomTransform: {fileID: 0}
  scalingMode: 1
  randomSeed: 1731292479
  InitialModule:
    serializedVersion: 3
    enabled: 1
    startLifetime:
      serializedVersion: 2
      minMaxState: 3
      scalar: 7
      minScalar: 6
      maxCurve:
        serializedVersion: 2
        m_Curve:
        - serializedVersion: 2
          time: 0
          value: 1
          inSlope: 0
          outSlope: 0
          tangentMode: 0
        m_PreInfinity: 2
        m_PostInfinity: 2
        m_RotationOrder: 0
      minCurve:
        serializedVersion: 2
        m_Curve:
        - serializedVersion: 2
          time: 0
          value: 0.85714287
          inSlope: 0
          outSlope: 0
          tangentMode: 0
        m_PreInfinity: 2
        m_PostInfinity: 2
        m_RotationOrder: 0
    startSpeed:
      serializedVersion: 2
      minMaxState: 0
      scalar: 0
      minScalar: 5
      maxCurve:
        serializedVersion: 2
        m_Curve:
        - serializedVersion: 2
          time: 0
          value: 1
          inSlope: 0
          outSlope: 0
          tangentMode: 0
        m_PreInfinity: 2
        m_PostInfinity: 2
        m_RotationOrder: 4
      minCurve:
        serializedVersion: 2
        m_Curve:
        - serializedVersion: 2
          time: 0
          value: 0.16666667
          inSlope: 0
          outSlope: 0
          tangentMode: 0
        m_PreInfinity: 2
        m_PostInfinity: 2
        m_RotationOrder: 4
    startColor:
      serializedVersion: 2
      minMaxState: 0
      minColor: {r: 1, g: 1, b: 1, a: 1}
      maxColor: {r: 0.44705883, g: 0.11764706, b: 0.11764706, a: 0.5411765}
      maxGradient:
        serializedVersion: 2
        key0: {r: 1, g: 1, b: 1, a: 1}
        key1: {r: 1, g: 1, b: 1, a: 1}
        key2: {r: 0, g: 0, b: 0, a: 0}
        key3: {r: 0, g: 0, b: 0, a: 0}
        key4: {r: 0, g: 0, b: 0, a: 0}
        key5: {r: 0, g: 0, b: 0, a: 0}
        key6: {r: 0, g: 0, b: 0, a: 0}
        key7: {r: 0, g: 0, b: 0, a: 0}
        ctime0: 0
        ctime1: 65535
        ctime2: 0
        ctime3: 0
        ctime4: 0
        ctime5: 0
        ctime6: 0
        ctime7: 0
        atime0: 0
        atime1: 65535
        atime2: 0
        atime3: 0
        atime4: 0
        atime5: 0
        atime6: 0
        atime7: 0
        m_Mode: 0
        m_NumColorKeys: 2
        m_NumAlphaKeys: 2
      minGradient:
        serializedVersion: 2
        key0: {r: 1, g: 1, b: 1, a: 1}
        key1: {r: 1, g: 1, b: 1, a: 1}
        key2: {r: 0, g: 0, b: 0, a: 0}
        key3: {r: 0, g: 0, b: 0, a: 0}
        key4: {r: 0, g: 0, b: 0, a: 0}
        key5: {r: 0, g: 0, b: 0, a: 0}
        key6: {r: 0, g: 0, b: 0, a: 0}
        key7: {r: 0, g: 0, b: 0, a: 0}
        ctime0: 0
        ctime1: 65535
        ctime2: 0
        ctime3: 0
        ctime4: 0
        ctime5: 0
        ctime6: 0
        ctime7: 0
        atime0: 0
        atime1: 65535
        atime2: 0
        atime3: 0
        atime4: 0
        atime5: 0
        atime6: 0
        atime7: 0
        m_Mode: 0
        m_NumColorKeys: 2
        m_NumAlphaKeys: 2
    startSize:
      serializedVersion: 2
      minMaxState: 3
      scalar: 3
      minScalar: 2
      maxCurve:
        serializedVersion: 2
        m_Curve:
        - serializedVersion: 2
          time: 0
          value: 1
          inSlope: 0
          outSlope: 0
          tangentMode: 0
        m_PreInfinity: 2
        m_PostInfinity: 2
        m_RotationOrder: 0
      minCurve:
        serializedVersion: 2
        m_Curve:
        - serializedVersion: 2
          time: 0
          value: 0.6666667
          inSlope: 0
          outSlope: 0
          tangentMode: 0
        m_PreInfinity: 2
        m_PostInfinity: 2
        m_RotationOrder: 0
    startSizeY:
      serializedVersion: 2
      minMaxState: 0
      scalar: 1
      minScalar: 1
      maxCurve:
        serializedVersion: 2
        m_Curve:
        - serializedVersion: 2
          time: 0
          value: 1
          inSlope: 0
          outSlope: 0
          tangentMode: 0
        - serializedVersion: 2
          time: 1
          value: 1
          inSlope: 0
          outSlope: 0
          tangentMode: 0
        m_PreInfinity: 2
        m_PostInfinity: 2
        m_RotationOrder: 4
      minCurve:
        serializedVersion: 2
        m_Curve:
        - serializedVersion: 2
          time: 0
          value: 0
          inSlope: 0
          outSlope: 0
          tangentMode: 0
        - serializedVersion: 2
          time: 1
          value: 0
          inSlope: 0
          outSlope: 0
          tangentMode: 0
        m_PreInfinity: 2
        m_PostInfinity: 2
        m_RotationOrder: 4
    startSizeZ:
      serializedVersion: 2
      minMaxState: 0
      scalar: 1
      minScalar: 1
      maxCurve:
        serializedVersion: 2
        m_Curve:
        - serializedVersion: 2
          time: 0
          value: 1
          inSlope: 0
          outSlope: 0
          tangentMode: 0
        - serializedVersion: 2
          time: 1
          value: 1
          inSlope: 0
          outSlope: 0
          tangentMode: 0
        m_PreInfinity: 2
        m_PostInfinity: 2
        m_RotationOrder: 4
      minCurve:
        serializedVersion: 2
        m_Curve:
        - serializedVersion: 2
          time: 0
          value: 0
          inSlope: 0
          outSlope: 0
          tangentMode: 0
        - serializedVersion: 2
          time: 1
          value: 0
          inSlope: 0
          outSlope: 0
          tangentMode: 0
        m_PreInfinity: 2
        m_PostInfinity: 2
        m_RotationOrder: 4
    startRotationX:
      serializedVersion: 2
      minMaxState: 3
      scalar: 0
      minScalar: 9.878564
      maxCurve:
        serializedVersion: 2
        m_Curve:
        - serializedVersion: 2
          time: 0
          value: 0
          inSlope: 0
          outSlope: 0
          tangentMode: 0
        m_PreInfinity: 2
        m_PostInfinity: 2
        m_RotationOrder: 0
      minCurve:
        serializedVersion: 2
        m_Curve:
        - serializedVersion: 2
          time: 0
          value: 1
          inSlope: 0
          outSlope: 0
          tangentMode: 0
        m_PreInfinity: 2
        m_PostInfinity: 2
        m_RotationOrder: 0
    startRotationY:
      serializedVersion: 2
      minMaxState: 3
      scalar: 0
      minScalar: 8.726646
      maxCurve:
        serializedVersion: 2
        m_Curve:
        - serializedVersion: 2
          time: 0
          value: 0
          inSlope: 0
          outSlope: 0
          tangentMode: 0
        m_PreInfinity: 2
        m_PostInfinity: 2
        m_RotationOrder: 0
      minCurve:
        serializedVersion: 2
        m_Curve:
        - serializedVersion: 2
          time: 0
          value: 1
          inSlope: 0
          outSlope: 0
          tangentMode: 0
        m_PreInfinity: 2
        m_PostInfinity: 2
        m_RotationOrder: 0
    startRotation:
      serializedVersion: 2
      minMaxState: 3
      scalar: 3.1415925
      minScalar: 0
      maxCurve:
        serializedVersion: 2
        m_Curve:
        - serializedVersion: 2
          time: 0
          value: 1
          inSlope: 0
          outSlope: 0
          tangentMode: 0
        m_PreInfinity: 2
        m_PostInfinity: 2
        m_RotationOrder: 0
      minCurve:
        serializedVersion: 2
        m_Curve:
        - serializedVersion: 2
          time: 0
          value: 0
          inSlope: 0
          outSlope: 0
          tangentMode: 0
        m_PreInfinity: 2
        m_PostInfinity: 2
        m_RotationOrder: 0
    randomizeRotationDirection: 0.45
    maxNumParticles: 8
    size3D: 0
    rotation3D: 0
    gravityModifier:
      serializedVersion: 2
      minMaxState: 0
      scalar: 0
      minScalar: 0
      maxCurve:
        serializedVersion: 2
        m_Curve:
        - serializedVersion: 2
          time: 0
          value: 0
          inSlope: 0
          outSlope: 0
          tangentMode: 0
        - serializedVersion: 2
          time: 1
          value: 0
          inSlope: 0
          outSlope: 0
          tangentMode: 0
        m_PreInfinity: 2
        m_PostInfinity: 2
        m_RotationOrder: 4
      minCurve:
        serializedVersion: 2
        m_Curve:
        - serializedVersion: 2
          time: 0
          value: 0
          inSlope: 0
          outSlope: 0
          tangentMode: 0
        - serializedVersion: 2
          time: 1
          value: 0
          inSlope: 0
          outSlope: 0
          tangentMode: 0
        m_PreInfinity: 2
        m_PostInfinity: 2
        m_RotationOrder: 4
  ShapeModule:
    serializedVersion: 5
    enabled: 1
    type: 5
    angle: 80
    length: 5
    boxThickness: {x: 0, y: 0, z: 0}
    radiusThickness: 1
    donutRadius: 0.2
    m_Position: {x: 0, y: 0, z: 0}
    m_Rotation: {x: 0, y: 0, z: 0}
    m_Scale: {x: 1.5, y: 0, z: 1.5}
    placementMode: 0
    m_MeshMaterialIndex: 0
    m_MeshNormalOffset: 0
    m_Mesh: {fileID: 0}
    m_MeshRenderer: {fileID: 0}
    m_SkinnedMeshRenderer: {fileID: 0}
    m_UseMeshMaterialIndex: 0
    m_UseMeshColors: 1
    alignToDirection: 0
    randomDirectionAmount: 1
    sphericalDirectionAmount: 0
    randomPositionAmount: 0
    radius:
      value: 0.5
      mode: 0
      spread: 0
      speed:
        serializedVersion: 2
        minMaxState: 0
        scalar: 1
        minScalar: 1
        maxCurve:
          serializedVersion: 2
          m_Curve:
          - serializedVersion: 2
            time: 0
            value: 1
            inSlope: 0
            outSlope: 0
            tangentMode: 0
          - serializedVersion: 2
            time: 1
            value: 1
            inSlope: 0
            outSlope: 0
            tangentMode: 0
          m_PreInfinity: 2
          m_PostInfinity: 2
          m_RotationOrder: 4
        minCurve:
          serializedVersion: 2
          m_Curve:
          - serializedVersion: 2
            time: 0
            value: 1
            inSlope: 0
            outSlope: 0
            tangentMode: 0
          - serializedVersion: 2
            time: 1
            value: 1
            inSlope: 0
            outSlope: 0
            tangentMode: 0
          m_PreInfinity: 2
          m_PostInfinity: 2
          m_RotationOrder: 4
    arc:
      value: 360
      mode: 0
      spread: 0
      speed:
        serializedVersion: 2
        minMaxState: 0
        scalar: 1
        minScalar: 1
        maxCurve:
          serializedVersion: 2
          m_Curve:
          - serializedVersion: 2
            time: 0
            value: 1
            inSlope: 0
            outSlope: 0
            tangentMode: 0
          - serializedVersion: 2
            time: 1
            value: 1
            inSlope: 0
            outSlope: 0
            tangentMode: 0
          m_PreInfinity: 2
          m_PostInfinity: 2
          m_RotationOrder: 4
        minCurve:
          serializedVersion: 2
          m_Curve:
          - serializedVersion: 2
            time: 0
            value: 1
            inSlope: 0
            outSlope: 0
            tangentMode: 0
          - serializedVersion: 2
            time: 1
            value: 1
            inSlope: 0
            outSlope: 0
            tangentMode: 0
          m_PreInfinity: 2
          m_PostInfinity: 2
          m_RotationOrder: 4
  EmissionModule:
    enabled: 1
    serializedVersion: 4
    rateOverTime:
      serializedVersion: 2
      minMaxState: 0
      scalar: 0
      minScalar: 10
      maxCurve:
        serializedVersion: 2
        m_Curve:
        - serializedVersion: 2
          time: 0
          value: 1
          inSlope: 0
          outSlope: 0
          tangentMode: 0
        - serializedVersion: 2
          time: 1
          value: 1
          inSlope: 0
          outSlope: 0
          tangentMode: 0
        m_PreInfinity: 2
        m_PostInfinity: 2
        m_RotationOrder: 4
      minCurve:
        serializedVersion: 2
        m_Curve:
        - serializedVersion: 2
          time: 0
          value: 0
          inSlope: 0
          outSlope: 0
          tangentMode: 0
        - serializedVersion: 2
          time: 1
          value: 0
          inSlope: 0
          outSlope: 0
          tangentMode: 0
        m_PreInfinity: 2
        m_PostInfinity: 2
        m_RotationOrder: 4
    rateOverDistance:
      serializedVersion: 2
      minMaxState: 0
      scalar: 0
      minScalar: 0
      maxCurve:
        serializedVersion: 2
        m_Curve:
        - serializedVersion: 2
          time: 0
          value: 0
          inSlope: 0
          outSlope: 0
          tangentMode: 0
        - serializedVersion: 2
          time: 1
          value: 0
          inSlope: 0
          outSlope: 0
          tangentMode: 0
        m_PreInfinity: 2
        m_PostInfinity: 2
        m_RotationOrder: 4
      minCurve:
        serializedVersion: 2
        m_Curve:
        - serializedVersion: 2
          time: 0
          value: 0
          inSlope: 0
          outSlope: 0
          tangentMode: 0
        - serializedVersion: 2
          time: 1
          value: 0
          inSlope: 0
          outSlope: 0
          tangentMode: 0
        m_PreInfinity: 2
        m_PostInfinity: 2
        m_RotationOrder: 4
    m_BurstCount: 2
    m_Bursts:
    - serializedVersion: 2
      time: 0
      countCurve:
        serializedVersion: 2
        minMaxState: 3
        scalar: 6
        minScalar: 3
        maxCurve:
          serializedVersion: 2
          m_Curve:
          - serializedVersion: 2
            time: 0
            value: 1
            inSlope: 0
            outSlope: 0
            tangentMode: 0
          - serializedVersion: 2
            time: 1
            value: 1
            inSlope: 0
            outSlope: 0
            tangentMode: 0
          m_PreInfinity: 2
          m_PostInfinity: 2
          m_RotationOrder: 4
        minCurve:
          serializedVersion: 2
          m_Curve:
          - serializedVersion: 2
            time: 0
            value: 1
            inSlope: 0
            outSlope: 0
            tangentMode: 0
          - serializedVersion: 2
            time: 1
            value: 1
            inSlope: 0
            outSlope: 0
            tangentMode: 0
          m_PreInfinity: 2
          m_PostInfinity: 2
          m_RotationOrder: 4
      cycleCount: 1
      repeatInterval: 0.01
    - serializedVersion: 2
      time: 0.1
      countCurve:
        serializedVersion: 2
        minMaxState: 3
        scalar: 3
        minScalar: 1
        maxCurve:
          serializedVersion: 2
          m_Curve:
          - serializedVersion: 2
            time: 0
            value: 1
            inSlope: 0
            outSlope: 0
            tangentMode: 0
          - serializedVersion: 2
            time: 1
            value: 1
            inSlope: 0
            outSlope: 0
            tangentMode: 0
          m_PreInfinity: 2
          m_PostInfinity: 2
          m_RotationOrder: 4
        minCurve:
          serializedVersion: 2
          m_Curve:
          - serializedVersion: 2
            time: 0
            value: 1
            inSlope: 0
            outSlope: 0
            tangentMode: 0
          - serializedVersion: 2
            time: 1
            value: 1
            inSlope: 0
            outSlope: 0
            tangentMode: 0
          m_PreInfinity: 2
          m_PostInfinity: 2
          m_RotationOrder: 4
      cycleCount: 1
      repeatInterval: 0.01
  SizeModule:
    enabled: 1
    curve:
      serializedVersion: 2
      minMaxState: 1
      scalar: 1
      minScalar: 1
      maxCurve:
        serializedVersion: 2
        m_Curve:
        - serializedVersion: 2
          time: 0
          value: 0
          inSlope: 3.1313791
          outSlope: 3.1313791
          tangentMode: 0
        - serializedVersion: 2
          time: 0.7572816
          value: 1
          inSlope: 0
          outSlope: 0
          tangentMode: 0
        m_PreInfinity: 2
        m_PostInfinity: 2
        m_RotationOrder: 0
      minCurve:
        serializedVersion: 2
        m_Curve:
        - serializedVersion: 2
          time: 0
          value: 0
          inSlope: 0
          outSlope: 0
          tangentMode: 0
        - serializedVersion: 2
          time: 1
          value: 0
          inSlope: 0
          outSlope: 0
          tangentMode: 0
        m_PreInfinity: 2
        m_PostInfinity: 2
        m_RotationOrder: 4
    y:
      serializedVersion: 2
      minMaxState: 1
      scalar: 1
      minScalar: 1
      maxCurve:
        serializedVersion: 2
        m_Curve:
        - serializedVersion: 2
          time: 0
          value: 1
          inSlope: 0
          outSlope: 0
          tangentMode: 0
        - serializedVersion: 2
          time: 1
          value: 1
          inSlope: 0
          outSlope: 0
          tangentMode: 0
        m_PreInfinity: 2
        m_PostInfinity: 2
        m_RotationOrder: 4
      minCurve:
        serializedVersion: 2
        m_Curve:
        - serializedVersion: 2
          time: 0
          value: 0
          inSlope: 0
          outSlope: 0
          tangentMode: 0
        - serializedVersion: 2
          time: 1
          value: 0
          inSlope: 0
          outSlope: 0
          tangentMode: 0
        m_PreInfinity: 2
        m_PostInfinity: 2
        m_RotationOrder: 4
    z:
      serializedVersion: 2
      minMaxState: 1
      scalar: 1
      minScalar: 1
      maxCurve:
        serializedVersion: 2
        m_Curve:
        - serializedVersion: 2
          time: 0
          value: 1
          inSlope: 0
          outSlope: 0
          tangentMode: 0
        - serializedVersion: 2
          time: 1
          value: 1
          inSlope: 0
          outSlope: 0
          tangentMode: 0
        m_PreInfinity: 2
        m_PostInfinity: 2
        m_RotationOrder: 4
      minCurve:
        serializedVersion: 2
        m_Curve:
        - serializedVersion: 2
          time: 0
          value: 0
          inSlope: 0
          outSlope: 0
          tangentMode: 0
        - serializedVersion: 2
          time: 1
          value: 0
          inSlope: 0
          outSlope: 0
          tangentMode: 0
        m_PreInfinity: 2
        m_PostInfinity: 2
        m_RotationOrder: 4
    separateAxes: 0
  RotationModule:
    enabled: 1
    x:
      serializedVersion: 2
      minMaxState: 2
      scalar: 1
      minScalar: 0
      maxCurve:
        serializedVersion: 2
        m_Curve:
        - serializedVersion: 2
          time: 0
          value: 0
          inSlope: 0
          outSlope: 0
          tangentMode: 0
        m_PreInfinity: 2
        m_PostInfinity: 2
        m_RotationOrder: 0
      minCurve:
        serializedVersion: 2
        m_Curve:
        - serializedVersion: 2
          time: 0
          value: 0
          inSlope: 0
          outSlope: 0
          tangentMode: 0
        m_PreInfinity: 2
        m_PostInfinity: 2
        m_RotationOrder: 0
    y:
      serializedVersion: 2
      minMaxState: 2
      scalar: 1
      minScalar: 0
      maxCurve:
        serializedVersion: 2
        m_Curve:
        - serializedVersion: 2
          time: 0
          value: 0
          inSlope: 0
          outSlope: 0
          tangentMode: 0
        m_PreInfinity: 2
        m_PostInfinity: 2
        m_RotationOrder: 0
      minCurve:
        serializedVersion: 2
        m_Curve:
        - serializedVersion: 2
          time: 0
          value: 0
          inSlope: 0
          outSlope: 0
          tangentMode: 0
        m_PreInfinity: 2
        m_PostInfinity: 2
        m_RotationOrder: 0
    curve:
      serializedVersion: 2
      minMaxState: 2
      scalar: 0.7853981
      minScalar: 0.7853982
      maxCurve:
        serializedVersion: 2
        m_Curve:
        - serializedVersion: 2
          time: 0
          value: 0.34031415
          inSlope: 0
          outSlope: 0
          tangentMode: 0
        - serializedVersion: 2
          time: 0.52252257
          value: 0.036649227
          inSlope: 0
          outSlope: 0
          tangentMode: 0
        m_PreInfinity: 2
        m_PostInfinity: 2
        m_RotationOrder: 0
      minCurve:
        serializedVersion: 2
        m_Curve:
        - serializedVersion: 2
          time: 0
          value: -0.41361254
          inSlope: 0
          outSlope: 0
          tangentMode: 0
        - serializedVersion: 2
          time: 0.5225225
          value: 0.0052355733
          inSlope: 0
          outSlope: 0
          tangentMode: 0
        m_PreInfinity: 2
        m_PostInfinity: 2
        m_RotationOrder: 0
    separateAxes: 1
  ColorModule:
    enabled: 1
    gradient:
      serializedVersion: 2
      minMaxState: 1
      minColor: {r: 1, g: 1, b: 1, a: 1}
      maxColor: {r: 1, g: 1, b: 1, a: 1}
      maxGradient:
        serializedVersion: 2
        key0: {r: 0.88235295, g: 0.88235295, b: 0.88235295, a: 0.039215688}
        key1: {r: 1, g: 1, b: 1, a: 0.88235295}
        key2: {r: 0, g: 0, b: 0, a: 1}
        key3: {r: 0, g: 0, b: 0, a: 0}
        key4: {r: 0, g: 0, b: 0, a: 0}
        key5: {r: 0, g: 0, b: 0, a: 0}
        key6: {r: 0, g: 0, b: 0, a: 0}
        key7: {r: 0, g: 0, b: 0, a: 0}
        ctime0: 0
        ctime1: 65535
        ctime2: 0
        ctime3: 0
        ctime4: 0
        ctime5: 0
        ctime6: 0
        ctime7: 0
        atime0: 0
        atime1: 3277
        atime2: 39899
        atime3: 65535
        atime4: 65535
        atime5: 0
        atime6: 0
        atime7: 0
        m_Mode: 0
        m_NumColorKeys: 2
        m_NumAlphaKeys: 4
      minGradient:
        serializedVersion: 2
        key0: {r: 1, g: 1, b: 1, a: 1}
        key1: {r: 1, g: 1, b: 1, a: 1}
        key2: {r: 0, g: 0, b: 0, a: 0}
        key3: {r: 0, g: 0, b: 0, a: 0}
        key4: {r: 0, g: 0, b: 0, a: 0}
        key5: {r: 0, g: 0, b: 0, a: 0}
        key6: {r: 0, g: 0, b: 0, a: 0}
        key7: {r: 0, g: 0, b: 0, a: 0}
        ctime0: 0
        ctime1: 65535
        ctime2: 0
        ctime3: 0
        ctime4: 0
        ctime5: 0
        ctime6: 0
        ctime7: 0
        atime0: 0
        atime1: 65535
        atime2: 0
        atime3: 0
        atime4: 0
        atime5: 0
        atime6: 0
        atime7: 0
        m_Mode: 0
        m_NumColorKeys: 2
        m_NumAlphaKeys: 2
  UVModule:
    enabled: 0
    mode: 0
    frameOverTime:
      serializedVersion: 2
      minMaxState: 1
      scalar: 0.9999
      minScalar: 0.9999
      maxCurve:
        serializedVersion: 2
        m_Curve:
        - serializedVersion: 2
          time: 0
          value: 0
          inSlope: 1
          outSlope: 1
          tangentMode: 34
        - serializedVersion: 2
          time: 1
          value: 1
          inSlope: 1
          outSlope: 1
          tangentMode: 34
        m_PreInfinity: 2
        m_PostInfinity: 2
        m_RotationOrder: 4
      minCurve:
        serializedVersion: 2
        m_Curve:
        - serializedVersion: 2
          time: 0
          value: 0
          inSlope: 0
          outSlope: 1
          tangentMode: 0
        - serializedVersion: 2
          time: 1
          value: 1
          inSlope: 1
          outSlope: 0
          tangentMode: 0
        m_PreInfinity: 2
        m_PostInfinity: 2
        m_RotationOrder: 4
    startFrame:
      serializedVersion: 2
      minMaxState: 0
      scalar: 0
      minScalar: 0
      maxCurve:
        serializedVersion: 2
        m_Curve:
        - serializedVersion: 2
          time: 0
          value: 1
          inSlope: 0
          outSlope: 0
          tangentMode: 0
        - serializedVersion: 2
          time: 1
          value: 1
          inSlope: 0
          outSlope: 0
          tangentMode: 0
        m_PreInfinity: 2
        m_PostInfinity: 2
        m_RotationOrder: 4
      minCurve:
        serializedVersion: 2
        m_Curve:
        - serializedVersion: 2
          time: 0
          value: 0
          inSlope: 0
          outSlope: 0
          tangentMode: 0
        - serializedVersion: 2
          time: 1
          value: 0
          inSlope: 0
          outSlope: 0
          tangentMode: 0
        m_PreInfinity: 2
        m_PostInfinity: 2
        m_RotationOrder: 4
    tilesX: 8
    tilesY: 1
    animationType: 0
    rowIndex: 0
    cycles: 1
    uvChannelMask: -1
    flipU: 0
    flipV: 0
    randomRow: 1
    sprites:
    - sprite: {fileID: 0}
  VelocityModule:
    enabled: 0
    x:
      serializedVersion: 2
      minMaxState: 0
      scalar: 0
      minScalar: 0
      maxCurve:
        serializedVersion: 2
        m_Curve:
        - serializedVersion: 2
          time: 0
          value: 1
          inSlope: 0
          outSlope: 0
          tangentMode: 0
        - serializedVersion: 2
          time: 1
          value: 1
          inSlope: 0
          outSlope: 0
          tangentMode: 0
        m_PreInfinity: 2
        m_PostInfinity: 2
        m_RotationOrder: 4
      minCurve:
        serializedVersion: 2
        m_Curve:
        - serializedVersion: 2
          time: 0
          value: 0
          inSlope: 0
          outSlope: 0
          tangentMode: 0
        - serializedVersion: 2
          time: 1
          value: 0
          inSlope: 0
          outSlope: 0
          tangentMode: 0
        m_PreInfinity: 2
        m_PostInfinity: 2
        m_RotationOrder: 4
    y:
      serializedVersion: 2
      minMaxState: 0
      scalar: 0
      minScalar: 0
      maxCurve:
        serializedVersion: 2
        m_Curve:
        - serializedVersion: 2
          time: 0
          value: 1
          inSlope: 0
          outSlope: 0
          tangentMode: 0
        - serializedVersion: 2
          time: 1
          value: 1
          inSlope: 0
          outSlope: 0
          tangentMode: 0
        m_PreInfinity: 2
        m_PostInfinity: 2
        m_RotationOrder: 4
      minCurve:
        serializedVersion: 2
        m_Curve:
        - serializedVersion: 2
          time: 0
          value: 0
          inSlope: 0
          outSlope: 0
          tangentMode: 0
        - serializedVersion: 2
          time: 1
          value: 0
          inSlope: 0
          outSlope: 0
          tangentMode: 0
        m_PreInfinity: 2
        m_PostInfinity: 2
        m_RotationOrder: 4
    z:
      serializedVersion: 2
      minMaxState: 0
      scalar: 0
      minScalar: 0
      maxCurve:
        serializedVersion: 2
        m_Curve:
        - serializedVersion: 2
          time: 0
          value: 1
          inSlope: 0
          outSlope: 0
          tangentMode: 0
        - serializedVersion: 2
          time: 1
          value: 1
          inSlope: 0
          outSlope: 0
          tangentMode: 0
        m_PreInfinity: 2
        m_PostInfinity: 2
        m_RotationOrder: 4
      minCurve:
        serializedVersion: 2
        m_Curve:
        - serializedVersion: 2
          time: 0
          value: 0
          inSlope: 0
          outSlope: 0
          tangentMode: 0
        - serializedVersion: 2
          time: 1
          value: 0
          inSlope: 0
          outSlope: 0
          tangentMode: 0
        m_PreInfinity: 2
        m_PostInfinity: 2
        m_RotationOrder: 4
    speedModifier:
      serializedVersion: 2
      minMaxState: 0
      scalar: 1
      minScalar: 1
      maxCurve:
        serializedVersion: 2
        m_Curve:
        - serializedVersion: 2
          time: 0
          value: 1
          inSlope: 0
          outSlope: 0
          tangentMode: 0
        - serializedVersion: 2
          time: 1
          value: 1
          inSlope: 0
          outSlope: 0
          tangentMode: 0
        m_PreInfinity: 2
        m_PostInfinity: 2
        m_RotationOrder: 4
      minCurve:
        serializedVersion: 2
        m_Curve:
        - serializedVersion: 2
          time: 0
          value: 1
          inSlope: 0
          outSlope: 0
          tangentMode: 0
        - serializedVersion: 2
          time: 1
          value: 1
          inSlope: 0
          outSlope: 0
          tangentMode: 0
        m_PreInfinity: 2
        m_PostInfinity: 2
        m_RotationOrder: 4
    inWorldSpace: 0
  InheritVelocityModule:
    enabled: 0
    m_Mode: 0
    m_Curve:
      serializedVersion: 2
      minMaxState: 0
      scalar: 1
      minScalar: 0
      maxCurve:
        serializedVersion: 2
        m_Curve:
        - serializedVersion: 2
          time: 0
          value: 1
          inSlope: 0
          outSlope: 0
          tangentMode: 0
        - serializedVersion: 2
          time: 1
          value: 1
          inSlope: 0
          outSlope: 0
          tangentMode: 0
        m_PreInfinity: 2
        m_PostInfinity: 2
        m_RotationOrder: 4
      minCurve:
        serializedVersion: 2
        m_Curve:
        - serializedVersion: 2
          time: 0
          value: 0
          inSlope: 0
          outSlope: 0
          tangentMode: 0
        - serializedVersion: 2
          time: 1
          value: 0
          inSlope: 0
          outSlope: 0
          tangentMode: 0
        m_PreInfinity: 2
        m_PostInfinity: 2
        m_RotationOrder: 4
  ForceModule:
    enabled: 0
    x:
      serializedVersion: 2
      minMaxState: 0
      scalar: 0
      minScalar: 0
      maxCurve:
        serializedVersion: 2
        m_Curve:
        - serializedVersion: 2
          time: 0
          value: 1
          inSlope: 0
          outSlope: 0
          tangentMode: 0
        - serializedVersion: 2
          time: 1
          value: 1
          inSlope: 0
          outSlope: 0
          tangentMode: 0
        m_PreInfinity: 2
        m_PostInfinity: 2
        m_RotationOrder: 4
      minCurve:
        serializedVersion: 2
        m_Curve:
        - serializedVersion: 2
          time: 0
          value: 0
          inSlope: 0
          outSlope: 0
          tangentMode: 0
        - serializedVersion: 2
          time: 1
          value: 0
          inSlope: 0
          outSlope: 0
          tangentMode: 0
        m_PreInfinity: 2
        m_PostInfinity: 2
        m_RotationOrder: 4
    y:
      serializedVersion: 2
      minMaxState: 0
      scalar: 0
      minScalar: 0
      maxCurve:
        serializedVersion: 2
        m_Curve:
        - serializedVersion: 2
          time: 0
          value: 1
          inSlope: 0
          outSlope: 0
          tangentMode: 0
        - serializedVersion: 2
          time: 1
          value: 1
          inSlope: 0
          outSlope: 0
          tangentMode: 0
        m_PreInfinity: 2
        m_PostInfinity: 2
        m_RotationOrder: 4
      minCurve:
        serializedVersion: 2
        m_Curve:
        - serializedVersion: 2
          time: 0
          value: 0
          inSlope: 0
          outSlope: 0
          tangentMode: 0
        - serializedVersion: 2
          time: 1
          value: 0
          inSlope: 0
          outSlope: 0
          tangentMode: 0
        m_PreInfinity: 2
        m_PostInfinity: 2
        m_RotationOrder: 4
    z:
      serializedVersion: 2
      minMaxState: 0
      scalar: 0
      minScalar: 0
      maxCurve:
        serializedVersion: 2
        m_Curve:
        - serializedVersion: 2
          time: 0
          value: 1
          inSlope: 0
          outSlope: 0
          tangentMode: 0
        - serializedVersion: 2
          time: 1
          value: 1
          inSlope: 0
          outSlope: 0
          tangentMode: 0
        m_PreInfinity: 2
        m_PostInfinity: 2
        m_RotationOrder: 4
      minCurve:
        serializedVersion: 2
        m_Curve:
        - serializedVersion: 2
          time: 0
          value: 0
          inSlope: 0
          outSlope: 0
          tangentMode: 0
        - serializedVersion: 2
          time: 1
          value: 0
          inSlope: 0
          outSlope: 0
          tangentMode: 0
        m_PreInfinity: 2
        m_PostInfinity: 2
        m_RotationOrder: 4
    inWorldSpace: 0
    randomizePerFrame: 0
  ExternalForcesModule:
    enabled: 0
    multiplier: 1
  ClampVelocityModule:
    enabled: 0
    x:
      serializedVersion: 2
      minMaxState: 0
      scalar: 1
      minScalar: 1
      maxCurve:
        serializedVersion: 2
        m_Curve:
        - serializedVersion: 2
          time: 0
          value: 1
          inSlope: 0
          outSlope: 0
          tangentMode: 0
        - serializedVersion: 2
          time: 1
          value: 1
          inSlope: 0
          outSlope: 0
          tangentMode: 0
        m_PreInfinity: 2
        m_PostInfinity: 2
        m_RotationOrder: 4
      minCurve:
        serializedVersion: 2
        m_Curve:
        - serializedVersion: 2
          time: 0
          value: 0
          inSlope: 0
          outSlope: 0
          tangentMode: 0
        - serializedVersion: 2
          time: 1
          value: 0
          inSlope: 0
          outSlope: 0
          tangentMode: 0
        m_PreInfinity: 2
        m_PostInfinity: 2
        m_RotationOrder: 4
    y:
      serializedVersion: 2
      minMaxState: 0
      scalar: 1
      minScalar: 1
      maxCurve:
        serializedVersion: 2
        m_Curve:
        - serializedVersion: 2
          time: 0
          value: 1
          inSlope: 0
          outSlope: 0
          tangentMode: 0
        - serializedVersion: 2
          time: 1
          value: 1
          inSlope: 0
          outSlope: 0
          tangentMode: 0
        m_PreInfinity: 2
        m_PostInfinity: 2
        m_RotationOrder: 4
      minCurve:
        serializedVersion: 2
        m_Curve:
        - serializedVersion: 2
          time: 0
          value: 0
          inSlope: 0
          outSlope: 0
          tangentMode: 0
        - serializedVersion: 2
          time: 1
          value: 0
          inSlope: 0
          outSlope: 0
          tangentMode: 0
        m_PreInfinity: 2
        m_PostInfinity: 2
        m_RotationOrder: 4
    z:
      serializedVersion: 2
      minMaxState: 0
      scalar: 1
      minScalar: 1
      maxCurve:
        serializedVersion: 2
        m_Curve:
        - serializedVersion: 2
          time: 0
          value: 1
          inSlope: 0
          outSlope: 0
          tangentMode: 0
        - serializedVersion: 2
          time: 1
          value: 1
          inSlope: 0
          outSlope: 0
          tangentMode: 0
        m_PreInfinity: 2
        m_PostInfinity: 2
        m_RotationOrder: 4
      minCurve:
        serializedVersion: 2
        m_Curve:
        - serializedVersion: 2
          time: 0
          value: 0
          inSlope: 0
          outSlope: 0
          tangentMode: 0
        - serializedVersion: 2
          time: 1
          value: 0
          inSlope: 0
          outSlope: 0
          tangentMode: 0
        m_PreInfinity: 2
        m_PostInfinity: 2
        m_RotationOrder: 4
    magnitude:
      serializedVersion: 2
      minMaxState: 0
      scalar: 1
      minScalar: 1
      maxCurve:
        serializedVersion: 2
        m_Curve:
        - serializedVersion: 2
          time: 0
          value: 1
          inSlope: 0
          outSlope: 0
          tangentMode: 0
        - serializedVersion: 2
          time: 1
          value: 1
          inSlope: 0
          outSlope: 0
          tangentMode: 0
        m_PreInfinity: 2
        m_PostInfinity: 2
        m_RotationOrder: 4
      minCurve:
        serializedVersion: 2
        m_Curve:
        - serializedVersion: 2
          time: 0
          value: 0
          inSlope: 0
          outSlope: 0
          tangentMode: 0
        - serializedVersion: 2
          time: 1
          value: 0
          inSlope: 0
          outSlope: 0
          tangentMode: 0
        m_PreInfinity: 2
        m_PostInfinity: 2
        m_RotationOrder: 4
    separateAxis: 0
    inWorldSpace: 0
    multiplyDragByParticleSize: 1
    multiplyDragByParticleVelocity: 1
    dampen: 1
    drag:
      serializedVersion: 2
      minMaxState: 0
      scalar: 0
      minScalar: 0
      maxCurve:
        serializedVersion: 2
        m_Curve:
        - serializedVersion: 2
          time: 0
          value: 0
          inSlope: 0
          outSlope: 0
          tangentMode: 0
        - serializedVersion: 2
          time: 1
          value: 0
          inSlope: 0
          outSlope: 0
          tangentMode: 0
        m_PreInfinity: 2
        m_PostInfinity: 2
        m_RotationOrder: 4
      minCurve:
        serializedVersion: 2
        m_Curve:
        - serializedVersion: 2
          time: 0
          value: 0
          inSlope: 0
          outSlope: 0
          tangentMode: 0
        - serializedVersion: 2
          time: 1
          value: 0
          inSlope: 0
          outSlope: 0
          tangentMode: 0
        m_PreInfinity: 2
        m_PostInfinity: 2
        m_RotationOrder: 4
  NoiseModule:
    enabled: 0
    strength:
      serializedVersion: 2
      minMaxState: 0
      scalar: 1
      minScalar: 1
      maxCurve:
        serializedVersion: 2
        m_Curve:
        - serializedVersion: 2
          time: 0
          value: 1
          inSlope: 0
          outSlope: 0
          tangentMode: 0
        - serializedVersion: 2
          time: 1
          value: 1
          inSlope: 0
          outSlope: 0
          tangentMode: 0
        m_PreInfinity: 2
        m_PostInfinity: 2
        m_RotationOrder: 4
      minCurve:
        serializedVersion: 2
        m_Curve:
        - serializedVersion: 2
          time: 0
          value: 1
          inSlope: 0
          outSlope: 0
          tangentMode: 0
        - serializedVersion: 2
          time: 1
          value: 1
          inSlope: 0
          outSlope: 0
          tangentMode: 0
        m_PreInfinity: 2
        m_PostInfinity: 2
        m_RotationOrder: 4
    strengthY:
      serializedVersion: 2
      minMaxState: 0
      scalar: 1
      minScalar: 1
      maxCurve:
        serializedVersion: 2
        m_Curve:
        - serializedVersion: 2
          time: 0
          value: 1
          inSlope: 0
          outSlope: 0
          tangentMode: 0
        - serializedVersion: 2
          time: 1
          value: 1
          inSlope: 0
          outSlope: 0
          tangentMode: 0
        m_PreInfinity: 2
        m_PostInfinity: 2
        m_RotationOrder: 4
      minCurve:
        serializedVersion: 2
        m_Curve:
        - serializedVersion: 2
          time: 0
          value: 1
          inSlope: 0
          outSlope: 0
          tangentMode: 0
        - serializedVersion: 2
          time: 1
          value: 1
          inSlope: 0
          outSlope: 0
          tangentMode: 0
        m_PreInfinity: 2
        m_PostInfinity: 2
        m_RotationOrder: 4
    strengthZ:
      serializedVersion: 2
      minMaxState: 0
      scalar: 1
      minScalar: 1
      maxCurve:
        serializedVersion: 2
        m_Curve:
        - serializedVersion: 2
          time: 0
          value: 1
          inSlope: 0
          outSlope: 0
          tangentMode: 0
        - serializedVersion: 2
          time: 1
          value: 1
          inSlope: 0
          outSlope: 0
          tangentMode: 0
        m_PreInfinity: 2
        m_PostInfinity: 2
        m_RotationOrder: 4
      minCurve:
        serializedVersion: 2
        m_Curve:
        - serializedVersion: 2
          time: 0
          value: 1
          inSlope: 0
          outSlope: 0
          tangentMode: 0
        - serializedVersion: 2
          time: 1
          value: 1
          inSlope: 0
          outSlope: 0
          tangentMode: 0
        m_PreInfinity: 2
        m_PostInfinity: 2
        m_RotationOrder: 4
    separateAxes: 0
    frequency: 0.5
    damping: 1
    octaves: 1
    octaveMultiplier: 0.5
    octaveScale: 2
    quality: 2
    scrollSpeed:
      serializedVersion: 2
      minMaxState: 0
      scalar: 0
      minScalar: 0
      maxCurve:
        serializedVersion: 2
        m_Curve:
        - serializedVersion: 2
          time: 0
          value: 0
          inSlope: 0
          outSlope: 0
          tangentMode: 0
        - serializedVersion: 2
          time: 1
          value: 0
          inSlope: 0
          outSlope: 0
          tangentMode: 0
        m_PreInfinity: 2
        m_PostInfinity: 2
        m_RotationOrder: 4
      minCurve:
        serializedVersion: 2
        m_Curve:
        - serializedVersion: 2
          time: 0
          value: 0
          inSlope: 0
          outSlope: 0
          tangentMode: 0
        - serializedVersion: 2
          time: 1
          value: 0
          inSlope: 0
          outSlope: 0
          tangentMode: 0
        m_PreInfinity: 2
        m_PostInfinity: 2
        m_RotationOrder: 4
    remap:
      serializedVersion: 2
      minMaxState: 1
      scalar: 1
      minScalar: 1
      maxCurve:
        serializedVersion: 2
        m_Curve:
        - serializedVersion: 2
          time: 0
          value: 0
          inSlope: 0
          outSlope: 1
          tangentMode: 0
        - serializedVersion: 2
          time: 1
          value: 1
          inSlope: 1
          outSlope: 0
          tangentMode: 0
        m_PreInfinity: 2
        m_PostInfinity: 2
        m_RotationOrder: 4
      minCurve:
        serializedVersion: 2
        m_Curve:
        - serializedVersion: 2
          time: 0
          value: 1
          inSlope: 0
          outSlope: 0
          tangentMode: 0
        - serializedVersion: 2
          time: 1
          value: 1
          inSlope: 0
          outSlope: 0
          tangentMode: 0
        m_PreInfinity: 2
        m_PostInfinity: 2
        m_RotationOrder: 4
    remapY:
      serializedVersion: 2
      minMaxState: 1
      scalar: 1
      minScalar: 1
      maxCurve:
        serializedVersion: 2
        m_Curve:
        - serializedVersion: 2
          time: 0
          value: 0
          inSlope: 0
          outSlope: 1
          tangentMode: 0
        - serializedVersion: 2
          time: 1
          value: 1
          inSlope: 1
          outSlope: 0
          tangentMode: 0
        m_PreInfinity: 2
        m_PostInfinity: 2
        m_RotationOrder: 4
      minCurve:
        serializedVersion: 2
        m_Curve:
        - serializedVersion: 2
          time: 0
          value: 1
          inSlope: 0
          outSlope: 0
          tangentMode: 0
        - serializedVersion: 2
          time: 1
          value: 1
          inSlope: 0
          outSlope: 0
          tangentMode: 0
        m_PreInfinity: 2
        m_PostInfinity: 2
        m_RotationOrder: 4
    remapZ:
      serializedVersion: 2
      minMaxState: 1
      scalar: 1
      minScalar: 1
      maxCurve:
        serializedVersion: 2
        m_Curve:
        - serializedVersion: 2
          time: 0
          value: 0
          inSlope: 0
          outSlope: 1
          tangentMode: 0
        - serializedVersion: 2
          time: 1
          value: 1
          inSlope: 1
          outSlope: 0
          tangentMode: 0
        m_PreInfinity: 2
        m_PostInfinity: 2
        m_RotationOrder: 4
      minCurve:
        serializedVersion: 2
        m_Curve:
        - serializedVersion: 2
          time: 0
          value: 1
          inSlope: 0
          outSlope: 0
          tangentMode: 0
        - serializedVersion: 2
          time: 1
          value: 1
          inSlope: 0
          outSlope: 0
          tangentMode: 0
        m_PreInfinity: 2
        m_PostInfinity: 2
        m_RotationOrder: 4
    remapEnabled: 0
    positionAmount:
      serializedVersion: 2
      minMaxState: 0
      scalar: 1
      minScalar: 1
      maxCurve:
        serializedVersion: 2
        m_Curve:
        - serializedVersion: 2
          time: 0
          value: 1
          inSlope: 0
          outSlope: 0
          tangentMode: 0
        - serializedVersion: 2
          time: 1
          value: 1
          inSlope: 0
          outSlope: 0
          tangentMode: 0
        m_PreInfinity: 2
        m_PostInfinity: 2
        m_RotationOrder: 4
      minCurve:
        serializedVersion: 2
        m_Curve:
        - serializedVersion: 2
          time: 0
          value: 1
          inSlope: 0
          outSlope: 0
          tangentMode: 0
        - serializedVersion: 2
          time: 1
          value: 1
          inSlope: 0
          outSlope: 0
          tangentMode: 0
        m_PreInfinity: 2
        m_PostInfinity: 2
        m_RotationOrder: 4
    rotationAmount:
      serializedVersion: 2
      minMaxState: 0
      scalar: 0
      minScalar: 0
      maxCurve:
        serializedVersion: 2
        m_Curve:
        - serializedVersion: 2
          time: 0
          value: 0
          inSlope: 0
          outSlope: 0
          tangentMode: 0
        - serializedVersion: 2
          time: 1
          value: 0
          inSlope: 0
          outSlope: 0
          tangentMode: 0
        m_PreInfinity: 2
        m_PostInfinity: 2
        m_RotationOrder: 4
      minCurve:
        serializedVersion: 2
        m_Curve:
        - serializedVersion: 2
          time: 0
          value: 0
          inSlope: 0
          outSlope: 0
          tangentMode: 0
        - serializedVersion: 2
          time: 1
          value: 0
          inSlope: 0
          outSlope: 0
          tangentMode: 0
        m_PreInfinity: 2
        m_PostInfinity: 2
        m_RotationOrder: 4
    sizeAmount:
      serializedVersion: 2
      minMaxState: 0
      scalar: 0
      minScalar: 0
      maxCurve:
        serializedVersion: 2
        m_Curve:
        - serializedVersion: 2
          time: 0
          value: 0
          inSlope: 0
          outSlope: 0
          tangentMode: 0
        - serializedVersion: 2
          time: 1
          value: 0
          inSlope: 0
          outSlope: 0
          tangentMode: 0
        m_PreInfinity: 2
        m_PostInfinity: 2
        m_RotationOrder: 4
      minCurve:
        serializedVersion: 2
        m_Curve:
        - serializedVersion: 2
          time: 0
          value: 0
          inSlope: 0
          outSlope: 0
          tangentMode: 0
        - serializedVersion: 2
          time: 1
          value: 0
          inSlope: 0
          outSlope: 0
          tangentMode: 0
        m_PreInfinity: 2
        m_PostInfinity: 2
        m_RotationOrder: 4
  SizeBySpeedModule:
    enabled: 0
    curve:
      serializedVersion: 2
      minMaxState: 1
      scalar: 1
      minScalar: 1
      maxCurve:
        serializedVersion: 2
        m_Curve:
        - serializedVersion: 2
          time: 0
          value: 1
          inSlope: 0
          outSlope: 0
          tangentMode: 0
        - serializedVersion: 2
          time: 1
          value: 1
          inSlope: 0
          outSlope: 0
          tangentMode: 0
        m_PreInfinity: 2
        m_PostInfinity: 2
        m_RotationOrder: 4
      minCurve:
        serializedVersion: 2
        m_Curve:
        - serializedVersion: 2
          time: 0
          value: 0
          inSlope: 0
          outSlope: 0
          tangentMode: 0
        - serializedVersion: 2
          time: 1
          value: 0
          inSlope: 0
          outSlope: 0
          tangentMode: 0
        m_PreInfinity: 2
        m_PostInfinity: 2
        m_RotationOrder: 4
    y:
      serializedVersion: 2
      minMaxState: 1
      scalar: 1
      minScalar: 1
      maxCurve:
        serializedVersion: 2
        m_Curve:
        - serializedVersion: 2
          time: 0
          value: 1
          inSlope: 0
          outSlope: 0
          tangentMode: 0
        - serializedVersion: 2
          time: 1
          value: 1
          inSlope: 0
          outSlope: 0
          tangentMode: 0
        m_PreInfinity: 2
        m_PostInfinity: 2
        m_RotationOrder: 4
      minCurve:
        serializedVersion: 2
        m_Curve:
        - serializedVersion: 2
          time: 0
          value: 0
          inSlope: 0
          outSlope: 0
          tangentMode: 0
        - serializedVersion: 2
          time: 1
          value: 0
          inSlope: 0
          outSlope: 0
          tangentMode: 0
        m_PreInfinity: 2
        m_PostInfinity: 2
        m_RotationOrder: 4
    z:
      serializedVersion: 2
      minMaxState: 1
      scalar: 1
      minScalar: 1
      maxCurve:
        serializedVersion: 2
        m_Curve:
        - serializedVersion: 2
          time: 0
          value: 1
          inSlope: 0
          outSlope: 0
          tangentMode: 0
        - serializedVersion: 2
          time: 1
          value: 1
          inSlope: 0
          outSlope: 0
          tangentMode: 0
        m_PreInfinity: 2
        m_PostInfinity: 2
        m_RotationOrder: 4
      minCurve:
        serializedVersion: 2
        m_Curve:
        - serializedVersion: 2
          time: 0
          value: 0
          inSlope: 0
          outSlope: 0
          tangentMode: 0
        - serializedVersion: 2
          time: 1
          value: 0
          inSlope: 0
          outSlope: 0
          tangentMode: 0
        m_PreInfinity: 2
        m_PostInfinity: 2
        m_RotationOrder: 4
    range: {x: 0, y: 1}
    separateAxes: 0
  RotationBySpeedModule:
    enabled: 0
    x:
      serializedVersion: 2
      minMaxState: 0
      scalar: 1
      minScalar: 0
      maxCurve:
        serializedVersion: 2
        m_Curve:
        - serializedVersion: 2
          time: 0
          value: 1
          inSlope: 0
          outSlope: 0
          tangentMode: 0
        - serializedVersion: 2
          time: 1
          value: 1
          inSlope: 0
          outSlope: 0
          tangentMode: 0
        m_PreInfinity: 2
        m_PostInfinity: 2
        m_RotationOrder: 4
      minCurve:
        serializedVersion: 2
        m_Curve:
        - serializedVersion: 2
          time: 0
          value: 0
          inSlope: 0
          outSlope: 0
          tangentMode: 0
        - serializedVersion: 2
          time: 1
          value: 0
          inSlope: 0
          outSlope: 0
          tangentMode: 0
        m_PreInfinity: 2
        m_PostInfinity: 2
        m_RotationOrder: 4
    y:
      serializedVersion: 2
      minMaxState: 0
      scalar: 1
      minScalar: 0
      maxCurve:
        serializedVersion: 2
        m_Curve:
        - serializedVersion: 2
          time: 0
          value: 1
          inSlope: 0
          outSlope: 0
          tangentMode: 0
        - serializedVersion: 2
          time: 1
          value: 1
          inSlope: 0
          outSlope: 0
          tangentMode: 0
        m_PreInfinity: 2
        m_PostInfinity: 2
        m_RotationOrder: 4
      minCurve:
        serializedVersion: 2
        m_Curve:
        - serializedVersion: 2
          time: 0
          value: 0
          inSlope: 0
          outSlope: 0
          tangentMode: 0
        - serializedVersion: 2
          time: 1
          value: 0
          inSlope: 0
          outSlope: 0
          tangentMode: 0
        m_PreInfinity: 2
        m_PostInfinity: 2
        m_RotationOrder: 4
    curve:
      serializedVersion: 2
      minMaxState: 0
      scalar: 0.7853981
      minScalar: 0.7853982
      maxCurve:
        serializedVersion: 2
        m_Curve:
        - serializedVersion: 2
          time: 0
          value: 1
          inSlope: 0
          outSlope: 0
          tangentMode: 0
        - serializedVersion: 2
          time: 1
          value: 1
          inSlope: 0
          outSlope: 0
          tangentMode: 0
        m_PreInfinity: 2
        m_PostInfinity: 2
        m_RotationOrder: 4
      minCurve:
        serializedVersion: 2
        m_Curve:
        - serializedVersion: 2
          time: 0
          value: 0
          inSlope: 0
          outSlope: 0
          tangentMode: 0
        - serializedVersion: 2
          time: 1
          value: 0
          inSlope: 0
          outSlope: 0
          tangentMode: 0
        m_PreInfinity: 2
        m_PostInfinity: 2
        m_RotationOrder: 4
    separateAxes: 0
    range: {x: 0, y: 1}
  ColorBySpeedModule:
    enabled: 0
    gradient:
      serializedVersion: 2
      minMaxState: 1
      minColor: {r: 1, g: 1, b: 1, a: 1}
      maxColor: {r: 1, g: 1, b: 1, a: 1}
      maxGradient:
        serializedVersion: 2
        key0: {r: 1, g: 1, b: 1, a: 1}
        key1: {r: 1, g: 1, b: 1, a: 1}
        key2: {r: 0, g: 0, b: 0, a: 0}
        key3: {r: 0, g: 0, b: 0, a: 0}
        key4: {r: 0, g: 0, b: 0, a: 0}
        key5: {r: 0, g: 0, b: 0, a: 0}
        key6: {r: 0, g: 0, b: 0, a: 0}
        key7: {r: 0, g: 0, b: 0, a: 0}
        ctime0: 0
        ctime1: 65535
        ctime2: 0
        ctime3: 0
        ctime4: 0
        ctime5: 0
        ctime6: 0
        ctime7: 0
        atime0: 0
        atime1: 65535
        atime2: 0
        atime3: 0
        atime4: 0
        atime5: 0
        atime6: 0
        atime7: 0
        m_Mode: 0
        m_NumColorKeys: 2
        m_NumAlphaKeys: 2
      minGradient:
        serializedVersion: 2
        key0: {r: 1, g: 1, b: 1, a: 1}
        key1: {r: 1, g: 1, b: 1, a: 1}
        key2: {r: 0, g: 0, b: 0, a: 0}
        key3: {r: 0, g: 0, b: 0, a: 0}
        key4: {r: 0, g: 0, b: 0, a: 0}
        key5: {r: 0, g: 0, b: 0, a: 0}
        key6: {r: 0, g: 0, b: 0, a: 0}
        key7: {r: 0, g: 0, b: 0, a: 0}
        ctime0: 0
        ctime1: 65535
        ctime2: 0
        ctime3: 0
        ctime4: 0
        ctime5: 0
        ctime6: 0
        ctime7: 0
        atime0: 0
        atime1: 65535
        atime2: 0
        atime3: 0
        atime4: 0
        atime5: 0
        atime6: 0
        atime7: 0
        m_Mode: 0
        m_NumColorKeys: 2
        m_NumAlphaKeys: 2
    range: {x: 0, y: 1}
  CollisionModule:
    enabled: 0
    serializedVersion: 3
    type: 0
    collisionMode: 0
    colliderForce: 0
    multiplyColliderForceByParticleSize: 0
    multiplyColliderForceByParticleSpeed: 0
    multiplyColliderForceByCollisionAngle: 1
    plane0: {fileID: 0}
    plane1: {fileID: 0}
    plane2: {fileID: 0}
    plane3: {fileID: 0}
    plane4: {fileID: 0}
    plane5: {fileID: 0}
    m_Dampen:
      serializedVersion: 2
      minMaxState: 0
      scalar: 0
      minScalar: 0
      maxCurve:
        serializedVersion: 2
        m_Curve:
        - serializedVersion: 2
          time: 0
          value: 1
          inSlope: 0
          outSlope: 0
          tangentMode: 0
        - serializedVersion: 2
          time: 1
          value: 1
          inSlope: 0
          outSlope: 0
          tangentMode: 0
        m_PreInfinity: 2
        m_PostInfinity: 2
        m_RotationOrder: 4
      minCurve:
        serializedVersion: 2
        m_Curve:
        - serializedVersion: 2
          time: 0
          value: 0
          inSlope: 0
          outSlope: 0
          tangentMode: 0
        - serializedVersion: 2
          time: 1
          value: 0
          inSlope: 0
          outSlope: 0
          tangentMode: 0
        m_PreInfinity: 2
        m_PostInfinity: 2
        m_RotationOrder: 4
    m_Bounce:
      serializedVersion: 2
      minMaxState: 0
      scalar: 1
      minScalar: 1
      maxCurve:
        serializedVersion: 2
        m_Curve:
        - serializedVersion: 2
          time: 0
          value: 1
          inSlope: 0
          outSlope: 0
          tangentMode: 0
        - serializedVersion: 2
          time: 1
          value: 1
          inSlope: 0
          outSlope: 0
          tangentMode: 0
        m_PreInfinity: 2
        m_PostInfinity: 2
        m_RotationOrder: 4
      minCurve:
        serializedVersion: 2
        m_Curve:
        - serializedVersion: 2
          time: 0
          value: 0
          inSlope: 0
          outSlope: 0
          tangentMode: 0
        - serializedVersion: 2
          time: 1
          value: 0
          inSlope: 0
          outSlope: 0
          tangentMode: 0
        m_PreInfinity: 2
        m_PostInfinity: 2
        m_RotationOrder: 4
    m_EnergyLossOnCollision:
      serializedVersion: 2
      minMaxState: 0
      scalar: 0
      minScalar: 0
      maxCurve:
        serializedVersion: 2
        m_Curve:
        - serializedVersion: 2
          time: 0
          value: 1
          inSlope: 0
          outSlope: 0
          tangentMode: 0
        - serializedVersion: 2
          time: 1
          value: 1
          inSlope: 0
          outSlope: 0
          tangentMode: 0
        m_PreInfinity: 2
        m_PostInfinity: 2
        m_RotationOrder: 4
      minCurve:
        serializedVersion: 2
        m_Curve:
        - serializedVersion: 2
          time: 0
          value: 0
          inSlope: 0
          outSlope: 0
          tangentMode: 0
        - serializedVersion: 2
          time: 1
          value: 0
          inSlope: 0
          outSlope: 0
          tangentMode: 0
        m_PreInfinity: 2
        m_PostInfinity: 2
        m_RotationOrder: 4
    minKillSpeed: 0
    maxKillSpeed: 10000
    radiusScale: 1
    collidesWith:
      serializedVersion: 2
      m_Bits: 4294967295
    maxCollisionShapes: 256
    quality: 0
    voxelSize: 0.5
    collisionMessages: 0
    collidesWithDynamic: 1
    interiorCollisions: 1
  TriggerModule:
    enabled: 0
    collisionShape0: {fileID: 0}
    collisionShape1: {fileID: 0}
    collisionShape2: {fileID: 0}
    collisionShape3: {fileID: 0}
    collisionShape4: {fileID: 0}
    collisionShape5: {fileID: 0}
    inside: 1
    outside: 0
    enter: 0
    exit: 0
    radiusScale: 1
  SubModule:
    serializedVersion: 2
    enabled: 0
    subEmitters:
    - serializedVersion: 2
      emitter: {fileID: 0}
      type: 0
      properties: 0
  LightsModule:
    enabled: 0
    ratio: 0
    light: {fileID: 0}
    randomDistribution: 1
    color: 1
    range: 1
    intensity: 1
    rangeCurve:
      serializedVersion: 2
      minMaxState: 0
      scalar: 1
      minScalar: 1
      maxCurve:
        serializedVersion: 2
        m_Curve:
        - serializedVersion: 2
          time: 0
          value: 1
          inSlope: 0
          outSlope: 0
          tangentMode: 0
        - serializedVersion: 2
          time: 1
          value: 1
          inSlope: 0
          outSlope: 0
          tangentMode: 0
        m_PreInfinity: 2
        m_PostInfinity: 2
        m_RotationOrder: 4
      minCurve:
        serializedVersion: 2
        m_Curve:
        - serializedVersion: 2
          time: 0
          value: 1
          inSlope: 0
          outSlope: 0
          tangentMode: 0
        - serializedVersion: 2
          time: 1
          value: 1
          inSlope: 0
          outSlope: 0
          tangentMode: 0
        m_PreInfinity: 2
        m_PostInfinity: 2
        m_RotationOrder: 4
    intensityCurve:
      serializedVersion: 2
      minMaxState: 0
      scalar: 1
      minScalar: 1
      maxCurve:
        serializedVersion: 2
        m_Curve:
        - serializedVersion: 2
          time: 0
          value: 1
          inSlope: 0
          outSlope: 0
          tangentMode: 0
        - serializedVersion: 2
          time: 1
          value: 1
          inSlope: 0
          outSlope: 0
          tangentMode: 0
        m_PreInfinity: 2
        m_PostInfinity: 2
        m_RotationOrder: 4
      minCurve:
        serializedVersion: 2
        m_Curve:
        - serializedVersion: 2
          time: 0
          value: 1
          inSlope: 0
          outSlope: 0
          tangentMode: 0
        - serializedVersion: 2
          time: 1
          value: 1
          inSlope: 0
          outSlope: 0
          tangentMode: 0
        m_PreInfinity: 2
        m_PostInfinity: 2
        m_RotationOrder: 4
    maxLights: 20
  TrailModule:
    enabled: 0
    mode: 0
    ratio: 1
    lifetime:
      serializedVersion: 2
      minMaxState: 0
      scalar: 1
      minScalar: 1
      maxCurve:
        serializedVersion: 2
        m_Curve:
        - serializedVersion: 2
          time: 0
          value: 1
          inSlope: 0
          outSlope: 0
          tangentMode: 0
        - serializedVersion: 2
          time: 1
          value: 1
          inSlope: 0
          outSlope: 0
          tangentMode: 0
        m_PreInfinity: 2
        m_PostInfinity: 2
        m_RotationOrder: 4
      minCurve:
        serializedVersion: 2
        m_Curve:
        - serializedVersion: 2
          time: 0
          value: 1
          inSlope: 0
          outSlope: 0
          tangentMode: 0
        - serializedVersion: 2
          time: 1
          value: 1
          inSlope: 0
          outSlope: 0
          tangentMode: 0
        m_PreInfinity: 2
        m_PostInfinity: 2
        m_RotationOrder: 4
    minVertexDistance: 0.2
    textureMode: 0
    ribbonCount: 1
    worldSpace: 0
    dieWithParticles: 1
    sizeAffectsWidth: 1
    sizeAffectsLifetime: 0
    inheritParticleColor: 1
    generateLightingData: 0
    splitSubEmitterRibbons: 0
    colorOverLifetime:
      serializedVersion: 2
      minMaxState: 0
      minColor: {r: 1, g: 1, b: 1, a: 1}
      maxColor: {r: 1, g: 1, b: 1, a: 1}
      maxGradient:
        serializedVersion: 2
        key0: {r: 1, g: 1, b: 1, a: 1}
        key1: {r: 1, g: 1, b: 1, a: 1}
        key2: {r: 0, g: 0, b: 0, a: 0}
        key3: {r: 0, g: 0, b: 0, a: 0}
        key4: {r: 0, g: 0, b: 0, a: 0}
        key5: {r: 0, g: 0, b: 0, a: 0}
        key6: {r: 0, g: 0, b: 0, a: 0}
        key7: {r: 0, g: 0, b: 0, a: 0}
        ctime0: 0
        ctime1: 65535
        ctime2: 0
        ctime3: 0
        ctime4: 0
        ctime5: 0
        ctime6: 0
        ctime7: 0
        atime0: 0
        atime1: 65535
        atime2: 0
        atime3: 0
        atime4: 0
        atime5: 0
        atime6: 0
        atime7: 0
        m_Mode: 0
        m_NumColorKeys: 2
        m_NumAlphaKeys: 2
      minGradient:
        serializedVersion: 2
        key0: {r: 1, g: 1, b: 1, a: 1}
        key1: {r: 1, g: 1, b: 1, a: 1}
        key2: {r: 0, g: 0, b: 0, a: 0}
        key3: {r: 0, g: 0, b: 0, a: 0}
        key4: {r: 0, g: 0, b: 0, a: 0}
        key5: {r: 0, g: 0, b: 0, a: 0}
        key6: {r: 0, g: 0, b: 0, a: 0}
        key7: {r: 0, g: 0, b: 0, a: 0}
        ctime0: 0
        ctime1: 65535
        ctime2: 0
        ctime3: 0
        ctime4: 0
        ctime5: 0
        ctime6: 0
        ctime7: 0
        atime0: 0
        atime1: 65535
        atime2: 0
        atime3: 0
        atime4: 0
        atime5: 0
        atime6: 0
        atime7: 0
        m_Mode: 0
        m_NumColorKeys: 2
        m_NumAlphaKeys: 2
    widthOverTrail:
      serializedVersion: 2
      minMaxState: 0
      scalar: 1
      minScalar: 1
      maxCurve:
        serializedVersion: 2
        m_Curve:
        - serializedVersion: 2
          time: 0
          value: 1
          inSlope: 0
          outSlope: 0
          tangentMode: 0
        - serializedVersion: 2
          time: 1
          value: 1
          inSlope: 0
          outSlope: 0
          tangentMode: 0
        m_PreInfinity: 2
        m_PostInfinity: 2
        m_RotationOrder: 4
      minCurve:
        serializedVersion: 2
        m_Curve:
        - serializedVersion: 2
          time: 0
          value: 1
          inSlope: 0
          outSlope: 0
          tangentMode: 0
        - serializedVersion: 2
          time: 1
          value: 1
          inSlope: 0
          outSlope: 0
          tangentMode: 0
        m_PreInfinity: 2
        m_PostInfinity: 2
        m_RotationOrder: 4
    colorOverTrail:
      serializedVersion: 2
      minMaxState: 0
      minColor: {r: 1, g: 1, b: 1, a: 1}
      maxColor: {r: 1, g: 1, b: 1, a: 1}
      maxGradient:
        serializedVersion: 2
        key0: {r: 1, g: 1, b: 1, a: 1}
        key1: {r: 1, g: 1, b: 1, a: 1}
        key2: {r: 0, g: 0, b: 0, a: 0}
        key3: {r: 0, g: 0, b: 0, a: 0}
        key4: {r: 0, g: 0, b: 0, a: 0}
        key5: {r: 0, g: 0, b: 0, a: 0}
        key6: {r: 0, g: 0, b: 0, a: 0}
        key7: {r: 0, g: 0, b: 0, a: 0}
        ctime0: 0
        ctime1: 65535
        ctime2: 0
        ctime3: 0
        ctime4: 0
        ctime5: 0
        ctime6: 0
        ctime7: 0
        atime0: 0
        atime1: 65535
        atime2: 0
        atime3: 0
        atime4: 0
        atime5: 0
        atime6: 0
        atime7: 0
        m_Mode: 0
        m_NumColorKeys: 2
        m_NumAlphaKeys: 2
      minGradient:
        serializedVersion: 2
        key0: {r: 1, g: 1, b: 1, a: 1}
        key1: {r: 1, g: 1, b: 1, a: 1}
        key2: {r: 0, g: 0, b: 0, a: 0}
        key3: {r: 0, g: 0, b: 0, a: 0}
        key4: {r: 0, g: 0, b: 0, a: 0}
        key5: {r: 0, g: 0, b: 0, a: 0}
        key6: {r: 0, g: 0, b: 0, a: 0}
        key7: {r: 0, g: 0, b: 0, a: 0}
        ctime0: 0
        ctime1: 65535
        ctime2: 0
        ctime3: 0
        ctime4: 0
        ctime5: 0
        ctime6: 0
        ctime7: 0
        atime0: 0
        atime1: 65535
        atime2: 0
        atime3: 0
        atime4: 0
        atime5: 0
        atime6: 0
        atime7: 0
        m_Mode: 0
        m_NumColorKeys: 2
        m_NumAlphaKeys: 2
  CustomDataModule:
    enabled: 0
    mode0: 0
    vectorComponentCount0: 4
    color0:
      serializedVersion: 2
      minMaxState: 0
      minColor: {r: 1, g: 1, b: 1, a: 1}
      maxColor: {r: 1, g: 1, b: 1, a: 1}
      maxGradient:
        serializedVersion: 2
        key0: {r: 1, g: 1, b: 1, a: 1}
        key1: {r: 1, g: 1, b: 1, a: 1}
        key2: {r: 0, g: 0, b: 0, a: 0}
        key3: {r: 0, g: 0, b: 0, a: 0}
        key4: {r: 0, g: 0, b: 0, a: 0}
        key5: {r: 0, g: 0, b: 0, a: 0}
        key6: {r: 0, g: 0, b: 0, a: 0}
        key7: {r: 0, g: 0, b: 0, a: 0}
        ctime0: 0
        ctime1: 65535
        ctime2: 0
        ctime3: 0
        ctime4: 0
        ctime5: 0
        ctime6: 0
        ctime7: 0
        atime0: 0
        atime1: 65535
        atime2: 0
        atime3: 0
        atime4: 0
        atime5: 0
        atime6: 0
        atime7: 0
        m_Mode: 0
        m_NumColorKeys: 2
        m_NumAlphaKeys: 2
      minGradient:
        serializedVersion: 2
        key0: {r: 1, g: 1, b: 1, a: 1}
        key1: {r: 1, g: 1, b: 1, a: 1}
        key2: {r: 0, g: 0, b: 0, a: 0}
        key3: {r: 0, g: 0, b: 0, a: 0}
        key4: {r: 0, g: 0, b: 0, a: 0}
        key5: {r: 0, g: 0, b: 0, a: 0}
        key6: {r: 0, g: 0, b: 0, a: 0}
        key7: {r: 0, g: 0, b: 0, a: 0}
        ctime0: 0
        ctime1: 65535
        ctime2: 0
        ctime3: 0
        ctime4: 0
        ctime5: 0
        ctime6: 0
        ctime7: 0
        atime0: 0
        atime1: 65535
        atime2: 0
        atime3: 0
        atime4: 0
        atime5: 0
        atime6: 0
        atime7: 0
        m_Mode: 0
        m_NumColorKeys: 2
        m_NumAlphaKeys: 2
    colorLabel0: Color
    vector0_0:
      serializedVersion: 2
      minMaxState: 0
      scalar: 0
      minScalar: 0
      maxCurve:
        serializedVersion: 2
        m_Curve:
        - serializedVersion: 2
          time: 0
          value: 0
          inSlope: 0
          outSlope: 0
          tangentMode: 0
        - serializedVersion: 2
          time: 1
          value: 0
          inSlope: 0
          outSlope: 0
          tangentMode: 0
        m_PreInfinity: 2
        m_PostInfinity: 2
        m_RotationOrder: 4
      minCurve:
        serializedVersion: 2
        m_Curve:
        - serializedVersion: 2
          time: 0
          value: 0
          inSlope: 0
          outSlope: 0
          tangentMode: 0
        - serializedVersion: 2
          time: 1
          value: 0
          inSlope: 0
          outSlope: 0
          tangentMode: 0
        m_PreInfinity: 2
        m_PostInfinity: 2
        m_RotationOrder: 4
    vectorLabel0_0: X
    vector0_1:
      serializedVersion: 2
      minMaxState: 0
      scalar: 0
      minScalar: 0
      maxCurve:
        serializedVersion: 2
        m_Curve:
        - serializedVersion: 2
          time: 0
          value: 0
          inSlope: 0
          outSlope: 0
          tangentMode: 0
        - serializedVersion: 2
          time: 1
          value: 0
          inSlope: 0
          outSlope: 0
          tangentMode: 0
        m_PreInfinity: 2
        m_PostInfinity: 2
        m_RotationOrder: 4
      minCurve:
        serializedVersion: 2
        m_Curve:
        - serializedVersion: 2
          time: 0
          value: 0
          inSlope: 0
          outSlope: 0
          tangentMode: 0
        - serializedVersion: 2
          time: 1
          value: 0
          inSlope: 0
          outSlope: 0
          tangentMode: 0
        m_PreInfinity: 2
        m_PostInfinity: 2
        m_RotationOrder: 4
    vectorLabel0_1: Y
    vector0_2:
      serializedVersion: 2
      minMaxState: 0
      scalar: 0
      minScalar: 0
      maxCurve:
        serializedVersion: 2
        m_Curve:
        - serializedVersion: 2
          time: 0
          value: 0
          inSlope: 0
          outSlope: 0
          tangentMode: 0
        - serializedVersion: 2
          time: 1
          value: 0
          inSlope: 0
          outSlope: 0
          tangentMode: 0
        m_PreInfinity: 2
        m_PostInfinity: 2
        m_RotationOrder: 4
      minCurve:
        serializedVersion: 2
        m_Curve:
        - serializedVersion: 2
          time: 0
          value: 0
          inSlope: 0
          outSlope: 0
          tangentMode: 0
        - serializedVersion: 2
          time: 1
          value: 0
          inSlope: 0
          outSlope: 0
          tangentMode: 0
        m_PreInfinity: 2
        m_PostInfinity: 2
        m_RotationOrder: 4
    vectorLabel0_2: Z
    vector0_3:
      serializedVersion: 2
      minMaxState: 0
      scalar: 0
      minScalar: 0
      maxCurve:
        serializedVersion: 2
        m_Curve:
        - serializedVersion: 2
          time: 0
          value: 0
          inSlope: 0
          outSlope: 0
          tangentMode: 0
        - serializedVersion: 2
          time: 1
          value: 0
          inSlope: 0
          outSlope: 0
          tangentMode: 0
        m_PreInfinity: 2
        m_PostInfinity: 2
        m_RotationOrder: 4
      minCurve:
        serializedVersion: 2
        m_Curve:
        - serializedVersion: 2
          time: 0
          value: 0
          inSlope: 0
          outSlope: 0
          tangentMode: 0
        - serializedVersion: 2
          time: 1
          value: 0
          inSlope: 0
          outSlope: 0
          tangentMode: 0
        m_PreInfinity: 2
        m_PostInfinity: 2
        m_RotationOrder: 4
    vectorLabel0_3: W
    mode1: 0
    vectorComponentCount1: 4
    color1:
      serializedVersion: 2
      minMaxState: 0
      minColor: {r: 1, g: 1, b: 1, a: 1}
      maxColor: {r: 1, g: 1, b: 1, a: 1}
      maxGradient:
        serializedVersion: 2
        key0: {r: 1, g: 1, b: 1, a: 1}
        key1: {r: 1, g: 1, b: 1, a: 1}
        key2: {r: 0, g: 0, b: 0, a: 0}
        key3: {r: 0, g: 0, b: 0, a: 0}
        key4: {r: 0, g: 0, b: 0, a: 0}
        key5: {r: 0, g: 0, b: 0, a: 0}
        key6: {r: 0, g: 0, b: 0, a: 0}
        key7: {r: 0, g: 0, b: 0, a: 0}
        ctime0: 0
        ctime1: 65535
        ctime2: 0
        ctime3: 0
        ctime4: 0
        ctime5: 0
        ctime6: 0
        ctime7: 0
        atime0: 0
        atime1: 65535
        atime2: 0
        atime3: 0
        atime4: 0
        atime5: 0
        atime6: 0
        atime7: 0
        m_Mode: 0
        m_NumColorKeys: 2
        m_NumAlphaKeys: 2
      minGradient:
        serializedVersion: 2
        key0: {r: 1, g: 1, b: 1, a: 1}
        key1: {r: 1, g: 1, b: 1, a: 1}
        key2: {r: 0, g: 0, b: 0, a: 0}
        key3: {r: 0, g: 0, b: 0, a: 0}
        key4: {r: 0, g: 0, b: 0, a: 0}
        key5: {r: 0, g: 0, b: 0, a: 0}
        key6: {r: 0, g: 0, b: 0, a: 0}
        key7: {r: 0, g: 0, b: 0, a: 0}
        ctime0: 0
        ctime1: 65535
        ctime2: 0
        ctime3: 0
        ctime4: 0
        ctime5: 0
        ctime6: 0
        ctime7: 0
        atime0: 0
        atime1: 65535
        atime2: 0
        atime3: 0
        atime4: 0
        atime5: 0
        atime6: 0
        atime7: 0
        m_Mode: 0
        m_NumColorKeys: 2
        m_NumAlphaKeys: 2
    colorLabel1: Color
    vector1_0:
      serializedVersion: 2
      minMaxState: 0
      scalar: 0
      minScalar: 0
      maxCurve:
        serializedVersion: 2
        m_Curve:
        - serializedVersion: 2
          time: 0
          value: 0
          inSlope: 0
          outSlope: 0
          tangentMode: 0
        - serializedVersion: 2
          time: 1
          value: 0
          inSlope: 0
          outSlope: 0
          tangentMode: 0
        m_PreInfinity: 2
        m_PostInfinity: 2
        m_RotationOrder: 4
      minCurve:
        serializedVersion: 2
        m_Curve:
        - serializedVersion: 2
          time: 0
          value: 0
          inSlope: 0
          outSlope: 0
          tangentMode: 0
        - serializedVersion: 2
          time: 1
          value: 0
          inSlope: 0
          outSlope: 0
          tangentMode: 0
        m_PreInfinity: 2
        m_PostInfinity: 2
        m_RotationOrder: 4
    vectorLabel1_0: X
    vector1_1:
      serializedVersion: 2
      minMaxState: 0
      scalar: 0
      minScalar: 0
      maxCurve:
        serializedVersion: 2
        m_Curve:
        - serializedVersion: 2
          time: 0
          value: 0
          inSlope: 0
          outSlope: 0
          tangentMode: 0
        - serializedVersion: 2
          time: 1
          value: 0
          inSlope: 0
          outSlope: 0
          tangentMode: 0
        m_PreInfinity: 2
        m_PostInfinity: 2
        m_RotationOrder: 4
      minCurve:
        serializedVersion: 2
        m_Curve:
        - serializedVersion: 2
          time: 0
          value: 0
          inSlope: 0
          outSlope: 0
          tangentMode: 0
        - serializedVersion: 2
          time: 1
          value: 0
          inSlope: 0
          outSlope: 0
          tangentMode: 0
        m_PreInfinity: 2
        m_PostInfinity: 2
        m_RotationOrder: 4
    vectorLabel1_1: Y
    vector1_2:
      serializedVersion: 2
      minMaxState: 0
      scalar: 0
      minScalar: 0
      maxCurve:
        serializedVersion: 2
        m_Curve:
        - serializedVersion: 2
          time: 0
          value: 0
          inSlope: 0
          outSlope: 0
          tangentMode: 0
        - serializedVersion: 2
          time: 1
          value: 0
          inSlope: 0
          outSlope: 0
          tangentMode: 0
        m_PreInfinity: 2
        m_PostInfinity: 2
        m_RotationOrder: 4
      minCurve:
        serializedVersion: 2
        m_Curve:
        - serializedVersion: 2
          time: 0
          value: 0
          inSlope: 0
          outSlope: 0
          tangentMode: 0
        - serializedVersion: 2
          time: 1
          value: 0
          inSlope: 0
          outSlope: 0
          tangentMode: 0
        m_PreInfinity: 2
        m_PostInfinity: 2
        m_RotationOrder: 4
    vectorLabel1_2: Z
    vector1_3:
      serializedVersion: 2
      minMaxState: 0
      scalar: 0
      minScalar: 0
      maxCurve:
        serializedVersion: 2
        m_Curve:
        - serializedVersion: 2
          time: 0
          value: 0
          inSlope: 0
          outSlope: 0
          tangentMode: 0
        - serializedVersion: 2
          time: 1
          value: 0
          inSlope: 0
          outSlope: 0
          tangentMode: 0
        m_PreInfinity: 2
        m_PostInfinity: 2
        m_RotationOrder: 4
      minCurve:
        serializedVersion: 2
        m_Curve:
        - serializedVersion: 2
          time: 0
          value: 0
          inSlope: 0
          outSlope: 0
          tangentMode: 0
        - serializedVersion: 2
          time: 1
          value: 0
          inSlope: 0
          outSlope: 0
          tangentMode: 0
        m_PreInfinity: 2
        m_PostInfinity: 2
        m_RotationOrder: 4
    vectorLabel1_3: W
--- !u!199 &19986810
ParticleSystemRenderer:
  serializedVersion: 4
  m_ObjectHideFlags: 1
  m_PrefabParentObject: {fileID: 0}
  m_PrefabInternal: {fileID: 100100000}
  m_GameObject: {fileID: 187174}
  m_Enabled: 1
  m_CastShadows: 0
  m_ReceiveShadows: 0
  m_DynamicOccludee: 1
  m_MotionVectors: 1
  m_LightProbeUsage: 0
  m_ReflectionProbeUsage: 0
  m_Materials:
  - {fileID: 2100000, guid: d2a2bdb87a3110d48898965a259346f9, type: 2}
  - {fileID: 0}
  m_StaticBatchInfo:
    firstSubMesh: 0
    subMeshCount: 0
  m_StaticBatchRoot: {fileID: 0}
  m_ProbeAnchor: {fileID: 0}
  m_LightProbeVolumeOverride: {fileID: 0}
  m_ScaleInLightmap: 1
  m_PreserveUVs: 0
  m_IgnoreNormalsForChartDetection: 0
  m_ImportantGI: 0
  m_StitchLightmapSeams: 0
  m_SelectedEditorRenderState: 3
  m_MinimumChartSize: 4
  m_AutoUVMaxDistance: 0.5
  m_AutoUVMaxAngle: 89
  m_LightmapParameters: {fileID: 0}
  m_SortingLayerID: 0
  m_SortingLayer: 0
  m_SortingOrder: 0
  m_RenderMode: 2
  m_SortMode: 0
  m_MinParticleSize: 0
  m_MaxParticleSize: 10
  m_CameraVelocityScale: 0
  m_VelocityScale: 0
  m_LengthScale: 5
  m_SortingFudge: 10
  m_NormalDirection: 1
  m_RenderAlignment: 0
  m_Pivot: {x: 0, y: 0, z: 0}
  m_UseCustomVertexStreams: 0
  m_VertexStreams: 0001030405
  m_Mesh: {fileID: 0}
  m_Mesh1: {fileID: 0}
  m_Mesh2: {fileID: 0}
  m_Mesh3: {fileID: 0}
  m_MaskInteraction: 0
--- !u!1001 &100100000
Prefab:
  m_ObjectHideFlags: 1
  serializedVersion: 2
  m_Modification:
    m_TransformParent: {fileID: 0}
    m_Modifications:
    - target: {fileID: 0}
      propertyPath: playOnAwake
      value: 0
      objectReference: {fileID: 0}
    m_RemovedComponents: []
  m_ParentPrefab: {fileID: 0}
  m_RootGameObject: {fileID: 187174}
  m_IsPrefabParent: 1
