%YAML 1.1
%TAG !u! tag:unity3d.com,2011:
--- !u!21 &2100000
Material:
  serializedVersion: 6
  m_ObjectHideFlags: 0
  m_PrefabParentObject: {fileID: 0}
  m_PrefabInternal: {fileID: 0}
  m_Name: WB_Mat_Hair_Silver2
  m_Shader: {fileID: 4800000, guid: e73c7dda974e54e30955ea3001ee3147, type: 3}
  m_ShaderKeywords: AMBIENT_ON BASE_BRDF LDIR_ON
  m_LightmapFlags: 4
  m_EnableInstancingVariants: 0
  m_DoubleSidedGI: 0
  m_CustomRenderQueue: 3000
  stringTagMap: {}
  disabledShaderPasses: []
  m_SavedProperties:
    serializedVersion: 3
    m_TexEnvs:
    - _BRDF:
        m_Texture: {fileID: 2800000, guid: 43eaaadf432ae4c7f8510f4cb10ad8fb, type: 3}
        m_Scale: {x: 1, y: 1}
        m_Offset: {x: 0, y: 0}
    - _BumpMap:
        m_Texture: {fileID: 0}
        m_Scale: {x: 1, y: 1}
        m_Offset: {x: 0, y: 0}
    - _DecalTex:
        m_Texture: {fileID: 0}
        m_Scale: {x: 1, y: 1}
        m_Offset: {x: 0, y: 0}
    - _EmissionMap:
        m_Texture: {fileID: 0}
        m_Scale: {x: 1, y: 1}
        m_Offset: {x: 0, y: 0}
    - _LightmapTex:
        m_Texture: {fileID: 0}
        m_Scale: {x: 1, y: 1}
        m_Offset: {x: 0, y: 0}
    - _MainTex:
        m_Texture: {fileID: 2800000, guid: 8b311f534bc9043509c94fd6d6d6eaa1, type: 3}
        m_Scale: {x: 1, y: 1}
        m_Offset: {x: 0, y: 0}
    - _MasksTex:
        m_Texture: {fileID: 0}
        m_Scale: {x: 1, y: 1}
        m_Offset: {x: 0, y: 0}
    - _OutlineTex:
        m_Texture: {fileID: 0}
        m_Scale: {x: 1, y: 1}
        m_Offset: {x: 0, y: 0}
    m_Floats:
    - _AMBIENT: 1
    - _BASE: 1
    - _BRDFBrightness: 0
    - _CUSTOMLIGHTMAP: 0
    - _CUSTOMSHADOW: 0
    - _Cutoff: 0.5
    - _EDGETRANSPARENCY: 0
    - _EmissionBakeIntensity: 2
    - _EmissionIntensity: 1
    - _LDIR: 1
    - _MainTexOpacity: 1
    - _ORTHO: 0
    - _OUTLINE: 0
    - _Outline: 0.01
    - _OutlineIntensity: 1
    - _OutlineX: 0.01
    - _OutlineY: 0.01
    - _REFCUSTOM: 0
    - _Transparency: 1
    - _TransparencyFresnel: 0
    - _XRAYEDGE: 0
    - _lmUV1: 0
    - _maskTex: 0
    - _mathPixel: 0
    m_Colors:
    - _Color: {r: 1, g: 1, b: 1, a: 1}
    - _DecalColor: {r: 1, g: 1, b: 1, a: 1}
    - _EmissionColor: {r: 1, g: 0.7, b: 0.3, a: 0}
    - _OutlineColor: {r: 0, g: 0, b: 0, a: 0}
